{
  "prepare_queue": {
    "installed": [],
    "uninstalled": []
  },
  "config_munge": {
    "files": {}
  },
  "installed_plugins": {
    "com.synconset.imagepicker": {
      "PACKAGE_NAME": "by.olegtronics.whitelotos"
    },
    "cordova-instagram-plugin": {
      "PACKAGE_NAME": "by.olegtronics.whitelotos"
    },
    "cordova-plugin-advanced-http": {
      "PACKAGE_NAME": "by.olegtronics.whitelotos"
    },
    "cordova-plugin-android-permissions": {
      "PACKAGE_NAME": "by.olegtronics.whitelotos"
    },
    "cordova-plugin-camera": {
      "PACKAGE_NAME": "by.olegtronics.whitelotos"
    },
    "cordova-plugin-device": {
      "PACKAGE_NAME": "by.olegtronics.whitelotos"
    },
    "cordova-plugin-file-transfer": {
      "PACKAGE_NAME": "by.olegtronics.whitelotos"
    },
    "cordova-plugin-globalization": {
      "PACKAGE_NAME": "by.olegtronics.whitelotos"
    },
    "cordova-plugin-inappbrowser": {
      "PACKAGE_NAME": "by.olegtronics.whitelotos"
    },
    "cordova-plugin-network-information": {
      "PACKAGE_NAME": "by.olegtronics.whitelotos"
    },
    "cordova-plugin-splashscreen": {
      "PACKAGE_NAME": "by.olegtronics.whitelotos"
    },
    "cordova-plugin-statusbar": {
      "PACKAGE_NAME": "by.olegtronics.whitelotos"
    },
    "cordova-plugin-whitelist": {
      "PACKAGE_NAME": "by.olegtronics.whitelotos"
    },
    "cordova-plugin-x-socialsharing": {
      "PACKAGE_NAME": "by.olegtronics.whitelotos"
    },
    "cordova-sqlite-storage": {
      "PACKAGE_NAME": "by.olegtronics.whitelotos"
    },
    "ionic-plugin-keyboard": {
      "PACKAGE_NAME": "by.olegtronics.whitelotos"
    },
    "phonegap-plugin-barcodescanner": {
      "PACKAGE_NAME": "by.olegtronics.whitelotos"
    },
    "phonegap-plugin-push": {
      "FCM_VERSION": "11.6.2",
      "PACKAGE_NAME": "by.olegtronics.whitelotos"
    }
  },
  "dependent_plugins": {
    "cordova-universal-clipboard": {
      "PACKAGE_NAME": "by.olegtronics.whitelotos"
    },
    "cordova-plugin-file": {
      "PACKAGE_NAME": "by.olegtronics.whitelotos"
    },
    "es6-promise-plugin": {
      "PACKAGE_NAME": "by.olegtronics.whitelotos"
    }
  }
}